<svg width="80" height="81" viewBox="0 0 80 81" fill="none" xmlns="http://www.w3.org/2000/svg">
<g clip-path="url(#clip2)">
<path d="M72.8741 13.9868C61.8671 10.9332 50.7954 6.17843 40.8559 0.23665C40.3279 -0.0789647 39.6727 -0.0789647 39.1449 0.23665C28.9187 6.34913 18.4453 10.8467 7.12576 13.9868C6.39451 14.1895 5.88763 14.8625 5.88763 15.6303V33.0398C5.88763 50.9679 14.0562 62.835 20.909 69.6331C28.2865 76.9524 36.8802 81 40.0004 81C43.1202 81 51.714 76.9524 59.0914 69.6331C65.9441 62.8351 74.1122 50.968 74.1122 33.0398V15.6301C74.1122 14.8625 73.6053 14.1895 72.8741 13.9868ZM70.7466 33.0397C70.7466 49.7844 63.1277 60.8578 56.7358 67.1988C49.481 74.3963 41.7243 77.592 40.0004 77.592C38.2765 77.592 30.5193 74.3963 23.2643 67.1988C16.8726 60.8576 9.25341 49.7844 9.25341 33.0397V16.9236C20.0781 13.8117 30.159 9.46889 40.0007 3.67819C49.5966 9.31528 60.1805 13.8741 70.7466 16.9229V33.0397Z" fill="white"/>
<path d="M25.084 16.7329C24.7434 15.8573 23.7664 15.4271 22.9014 15.7722C19.8951 16.9715 16.8095 18.0755 13.7303 19.0535C13.0286 19.2765 12.5511 19.9347 12.5511 20.6792V27.259C12.5511 28.2 13.3047 28.9628 14.2339 28.9628C15.1631 28.9628 15.9167 28.2 15.9167 27.259V21.9244C18.679 21.0195 21.4384 20.0185 24.1351 18.9426C25 18.5978 25.4248 17.6086 25.084 16.7329Z" fill="white"/>
<path d="M28.2807 17.0562C28.5065 17.0562 28.7357 17.0101 28.9555 16.913L28.9865 16.8994C29.8379 16.5216 30.2213 15.5181 29.8482 14.6564C29.4748 13.7944 28.4781 13.4044 27.6276 13.7819L27.6004 13.7937C26.7485 14.1704 26.3638 15.1731 26.7359 16.0353C27.012 16.6754 27.6315 17.0562 28.2807 17.0562Z" fill="white"/>
<path d="M60.0502 54.9411C59.2725 54.4265 58.2297 54.6478 57.7208 55.4355C56.3341 57.5846 54.7072 59.6425 52.8847 61.5515C51.386 63.1212 49.7619 64.5842 48.0577 65.8997C47.3188 66.4702 47.1766 67.5393 47.7399 68.2878C48.0713 68.7274 48.5724 68.9587 49.0793 68.9587C49.4352 68.9587 49.7938 68.845 50.0985 68.6095C51.9368 67.1903 53.6883 65.6126 55.3043 63.9201C57.2747 61.8565 59.0357 59.629 60.5385 57.2995C61.0471 56.5116 60.8282 55.4558 60.0502 54.9411Z" fill="white"/>
<path d="M44.1496 68.5719L44.053 68.6295C43.2488 69.1011 42.974 70.1433 43.4396 70.9576C43.7516 71.5034 44.3165 71.8081 44.8976 71.8081C45.1835 71.8081 45.4738 71.7342 45.739 71.5784L45.8504 71.5121C46.6524 71.0365 46.9218 69.9928 46.4521 69.1808C45.9821 68.369 44.9512 68.0968 44.1496 68.5719Z" fill="white"/>
<path d="M28.5295 37.0225C27.4962 35.9761 26.122 35.4003 24.6604 35.4003C23.1989 35.4003 21.8245 35.9763 20.7908 37.0225C18.6575 39.1829 18.6575 42.6982 20.7908 44.8584L30.7276 54.9192C31.761 55.9652 33.1353 56.5412 34.597 56.5412C36.0587 56.5412 37.4329 55.9652 38.4665 54.9189L59.2104 33.9155C61.3435 31.7546 61.3435 28.2398 59.2101 26.0802C58.1766 25.0339 56.8024 24.458 55.3405 24.458C53.8788 24.458 52.5046 25.034 51.471 26.0802L34.5968 43.1653L28.5295 37.0225ZM53.851 28.49C54.2487 28.0873 54.7779 27.8657 55.3407 27.8657C55.9038 27.8657 56.4326 28.0873 56.8305 28.49C57.6516 29.3213 57.6516 30.6746 56.8302 31.5063L36.0867 52.5093C35.689 52.9119 35.1598 53.1335 34.597 53.1335C34.0342 53.1335 33.5049 52.9119 33.1071 52.5093L23.1706 42.4488C22.3492 41.6172 22.3492 40.2639 23.1703 39.4325C23.5681 39.0299 24.0973 38.808 24.6603 38.808C25.2232 38.808 25.7521 39.0296 26.1498 39.4322L33.4068 46.7801C33.7226 47.0995 34.1504 47.2791 34.5968 47.2791C35.0432 47.2791 35.471 47.0997 35.7865 46.7801L53.851 28.49Z" fill="white"/>
</g>
<defs>
<clipPath id="clip2">
<rect width="80" height="81" fill="white"/>
</clipPath>
</defs>
</svg>
